2014-06-10 15:56:59 +0100,36
2014-06-10 15:59:33 +0100,448
2014-06-10 16:37:54 +0100,824
2014-06-10 16:37:58 +0100,0
2014-06-10 16:38:00 +0100,0
2014-06-11 16:47:00 +0100,4532
2014-06-11 17:01:00 +0100,452
2014-06-13 15:56:34 +0100,1228
2014-06-13 17:11:27 +0100,6396
2014-06-13 17:14:01 +0100,3316
2014-06-16 12:21:50 +0100,12484
2014-06-16 17:30:27 +0100,20040
2014-06-23 14:30:13 +0100,56
2014-06-23 14:51:27 +0100,2392
2014-08-05 16:25:28 +0100,13824
2014-08-05 17:07:19 +0100,15700
2014-08-06 16:16:43 +0100,10652
2014-08-06 17:33:22 +0100,9564
2014-08-07 14:53:41 +0100,5264
2014-08-07 15:18:06 +0100,13984
2014-08-07 15:25:31 +0100,24
2014-08-08 13:32:10 +0100,20
2014-08-08 13:37:23 +0100,84
2014-08-08 13:39:37 +0100,20
2014-08-08 13:39:51 +0100,0
2014-08-08 13:39:53 +0100,0
2014-08-08 13:41:19 +0100,2196
2014-08-14 17:22:57 +0100,9504
2014-09-21 11:06:20 +0100,21104
2014-09-23 13:34:52 +0100,12496
2014-09-23 13:40:09 +0100,6572
2014-09-23 15:30:36 +0100,29516
2014-09-23 15:57:07 +0100,5960
2014-09-23 16:16:54 +0100,5728
2014-09-23 17:15:32 +0100,6980
2014-09-23 17:22:34 +0100,3328
2014-09-23 17:39:00 +0100,792
2014-09-25 10:31:31 +0100,7480
2014-09-25 11:05:16 +0100,14636
2014-09-25 11:09:29 +0100,6452
2014-09-25 11:51:13 +0100,25876
2014-09-26 12:00:23 +0100,21740
2014-09-26 14:01:42 +0100,3288
2014-09-26 14:37:22 +0100,30780
2014-09-26 15:10:24 +0100,25628
2014-09-26 16:38:10 +0100,19940
2014-09-26 17:01:49 +0100,31092
2014-09-29 15:23:15 +0100,15836
2014-09-29 15:39:22 +0100,14768
2014-09-29 16:16:06 +0100,25964
2014-10-01 14:25:08 +0100,14672
2014-10-01 15:31:15 +0100,27324
2014-10-01 15:44:52 +0100,12676
2014-10-01 15:54:41 +0100,7388
2014-10-01 17:24:09 +0100,24580
2014-10-02 16:34:26 +0100,13784
2014-10-02 17:33:07 +0100,7340
2014-10-03 10:47:27 +0100,12904
2014-10-03 11:14:46 +0100,16736
2014-10-03 11:26:17 +0100,11580
2014-10-03 11:51:29 +0100,16984
2014-10-03 12:09:39 +0100,7584
2014-10-03 12:17:34 +0100,2764
2014-10-03 14:06:29 +0100,148
2014-10-03 14:14:01 +0100,0
2014-10-03 14:25:23 +0100,4
2014-10-03 14:38:19 +0100,144
2014-10-03 14:45:44 +0100,20
2014-10-03 14:46:44 +0100,808
2014-10-03 14:50:10 +0100,2068
2014-10-03 17:26:57 +0100,10004
2014-10-06 14:56:58 +0100,34580
2014-10-06 15:12:33 +0100,7256
2014-10-06 15:21:57 +0100,15312
2014-10-06 15:43:57 +0100,13172
2014-10-06 17:07:59 +0100,36400
2014-10-07 10:08:25 +0100,12284
2014-10-07 10:43:22 +0100,17184
2014-10-07 10:44:39 +0100,16
2014-10-07 11:11:42 +0100,7232
2014-10-07 14:07:13 +0100,13092
2014-10-07 15:12:11 +0100,12252
2014-10-07 16:00:19 +0100,12048
2014-10-07 16:40:41 +0100,4456
2014-10-08 16:39:28 +0100,3028
2014-10-08 16:55:02 +0100,3432
2014-10-08 17:09:55 +0100,5564
2014-10-08 17:09:59 +0100,0
2014-10-09 17:43:04 +0100,20668
2014-10-10 16:56:24 +0100,7308
2014-10-10 17:16:36 +0100,26100
2014-10-13 13:54:38 +0100,7280
2014-10-13 15:12:08 +0100,15668
2014-10-13 15:26:13 +0100,16596
2014-10-13 15:45:10 +0100,23600
2014-10-14 12:30:20 +0100,15644
2014-10-14 14:28:59 +0100,27660
2014-10-14 15:39:27 +0100,54724
2014-10-22 10:25:53 +0100,4996
2014-10-22 11:11:38 +0100,26720
2014-10-22 11:32:36 +0100,14432
2014-10-22 11:39:38 +0100,88
2014-10-24 12:29:02 +0100,17068
2014-10-24 12:45:48 +0100,17552
2014-10-24 12:57:44 +0100,16204
2014-10-24 13:54:58 +0100,7152
2014-10-24 14:01:02 +0100,11552
2014-10-24 14:18:43 +0100,27312
2014-10-24 14:31:00 +0100,16396
2014-10-24 14:35:21 +0100,7128
2014-10-24 14:35:27 +0100,0
2014-10-27 15:44:19 +0000,3196
2014-10-27 15:50:37 +0000,4696
2014-10-27 16:15:51 +0000,25588
2014-10-27 17:22:32 +0000,52168
2014-10-28 16:43:26 +0000,11484
2014-10-28 16:48:10 +0000,4376
2014-10-29 15:08:14 +0000,6520
2014-10-29 15:44:36 +0000,7148
2014-10-29 17:03:27 +0000,27464
2014-10-29 17:52:46 +0000,2248
2014-10-30 16:18:02 +0000,7192
2014-10-30 16:29:33 +0000,14232
2014-10-30 16:29:41 +0000,32
2014-10-30 17:08:26 +0000,7304
2014-10-30 17:34:52 +0000,11988
2014-10-31 15:57:07 +0000,15544
2014-10-31 16:30:19 +0000,33612
2014-10-31 17:17:47 +0000,28600
2014-11-03 12:24:39 +0000,16024
2014-11-03 14:02:47 +0000,30172
2014-11-03 14:05:51 +0000,3436
2014-11-03 14:11:38 +0000,5508
2014-11-03 14:22:23 +0000,8848
2014-11-03 14:55:48 +0000,30780
2014-11-03 14:59:53 +0000,16
2014-11-07 10:35:21 +0000,0
2014-11-07 10:35:31 +0000,0
2014-11-07 10:37:46 +0000,200
2014-11-07 10:38:05 +0000,64
2014-11-07 10:42:06 +0000,68
2014-11-07 10:42:42 +0000,20
2014-11-07 10:44:01 +0000,68
2014-12-23 14:11:54 +0000,7300
2014-12-23 14:17:08 +0000,7964
2014-12-23 14:26:40 +0000,7420
2014-12-23 14:34:09 +0000,10900
2015-01-15 17:34:45 +0000,11148
2015-01-19 14:39:43 +0000,4
2015-01-23 13:39:12 +0000,24
2015-01-23 13:39:14 +0000,0
2015-01-23 13:40:07 +0000,16
2015-01-23 13:44:26 +0000,900
2015-01-23 13:45:41 +0000,684
2015-01-23 13:50:45 +0000,8
2015-01-23 13:52:27 +0000,2312
2015-01-23 13:52:46 +0000,4
2015-01-23 13:58:03 +0000,872
2015-01-23 13:58:35 +0000,532
2015-01-23 13:59:08 +0000,0
2015-01-23 14:01:51 +0000,1232
2015-01-23 14:02:20 +0000,704
2015-01-23 14:03:04 +0000,408
2015-01-23 14:09:32 +0000,900
2015-01-23 14:45:07 +0000,4
2015-01-23 15:09:44 +0000,8
2015-01-23 15:10:07 +0000,88
2015-01-23 15:10:15 +0000,56
2015-01-23 15:14:50 +0000,12
2015-01-23 15:15:20 +0000,36
2015-01-23 15:20:24 +0000,108
2015-01-23 15:22:24 +0000,428
2015-01-23 15:40:45 +0000,52
2015-01-23 15:48:35 +0000,20
2015-01-23 15:55:42 +0000,24
2015-01-23 16:00:58 +0000,64
2015-01-23 16:01:02 +0000,8
2015-01-23 22:19:13 +0000,16
2015-01-23 22:21:41 +0000,16
2015-01-23 22:35:02 +0000,20
2015-01-23 22:40:41 +0000,16
2015-01-23 22:41:15 +0000,284
2015-01-23 22:41:34 +0000,4
2015-01-23 22:41:43 +0000,0
2015-01-23 22:41:59 +0000,24
2015-01-23 22:42:30 +0000,16
2015-01-23 22:42:49 +0000,24
2015-01-23 22:45:10 +0000,76
2015-01-23 22:45:16 +0000,12
2015-01-23 22:47:47 +0000,72
2015-01-23 22:51:06 +0000,64
2015-01-23 23:01:23 +0000,280
2015-01-23 23:06:01 +0000,284
2015-01-23 23:12:11 +0000,104
2015-01-23 23:15:34 +0000,4964
2015-01-23 23:24:57 +0000,148
2015-01-23 23:36:09 +0000,24
2015-01-23 23:46:32 +0000,5276
2015-01-23 23:47:52 +0000,188
2015-01-23 23:48:04 +0000,104
2015-01-23 23:51:01 +0000,4
2015-01-30 09:33:09 +0000,8
2015-01-30 09:33:55 +0000,20
2015-01-30 09:34:12 +0000,24
2015-01-30 09:35:54 +0000,36
2015-01-30 09:36:06 +0000,4
2015-01-30 09:36:31 +0000,8
2015-01-30 09:36:40 +0000,4
2015-01-30 09:38:20 +0000,36
2015-01-30 09:38:44 +0000,4
2015-01-30 13:57:01 +0000,0
2015-01-30 13:57:18 +0000,20
2015-01-30 14:00:51 +0000,8
2015-01-30 14:00:55 +0000,8
2015-01-30 14:09:19 +0000,72
2015-01-30 14:41:10 +0000,148
2015-01-30 14:41:53 +0000,4
2015-01-30 14:50:34 +0000,580
2015-01-30 15:12:26 +0000,16
2015-01-30 15:47:35 +0000,16
2015-01-30 16:38:54 +0000,32244
2015-01-30 16:39:07 +0000,80
2015-02-20 12:01:22 +0000,7624
2015-02-20 12:17:36 +0000,15792
2015-02-20 12:31:03 +0000,11708
2015-02-20 12:38:27 +0000,6536
2015-02-20 15:30:32 +0000,4
2015-02-23 14:16:26 +0000,7228
2015-02-23 14:37:10 +0000,26552
2015-02-23 14:57:52 +0000,15820
2015-02-23 15:09:09 +0000,348
2015-02-23 15:20:20 +0000,4
2015-02-23 15:33:19 +0000,20
2015-02-23 15:40:30 +0000,4
2015-02-26 11:53:26 +0000,16144
2015-02-26 12:29:01 +0000,12252
2015-02-26 12:35:06 +0000,6220
2015-02-26 16:07:44 +0000,23524
2015-02-26 16:37:00 +0000,27088
2015-02-26 16:38:58 +0000,8
2015-03-02 17:08:59 +0000,22028
2015-03-03 15:12:31 +0000,4824
2015-03-03 15:24:24 +0000,14688
2015-03-03 16:10:40 +0000,68880
2015-03-04 11:04:19 +0000,16132
2015-03-04 11:05:02 +0000,40
2015-03-05 16:34:31 +0000,27760
2015-03-05 16:36:01 +0000,808
2015-03-13 14:41:44 +0000,27244
2015-03-13 16:15:17 +0000,31464
2015-03-13 16:31:05 +0000,7528
2015-03-13 16:38:58 +0000,14496
2015-03-13 17:07:35 +0000,21324
2015-03-13 17:19:09 +0000,12652
2015-03-13 17:31:58 +0000,9724
2015-03-18 14:27:49 +0000,31728
2015-03-18 14:28:35 +0000,848
2015-03-23 16:54:26 +0000,37192
2015-03-23 17:02:42 +0000,7124
2015-03-23 17:15:04 +0000,12564
2015-03-23 17:23:06 +0000,7600
2015-03-23 17:30:55 +0000,1336
2015-03-25 15:04:08 +0000,14228
2015-03-25 15:19:25 +0000,10380
2015-03-25 15:31:51 +0000,8076
2015-03-25 15:40:32 +0000,6328
2015-03-25 16:02:29 +0000,21772
2015-03-25 16:02:35 +0000,0
2015-03-27 11:53:39 +0000,14252
2015-03-27 12:02:14 +0000,9056
2015-03-27 12:13:27 +0000,14504
2015-03-27 12:32:01 +0000,27948
2015-03-27 12:41:39 +0000,12140
2015-03-27 12:59:47 +0000,25876
2015-03-27 15:05:29 +0000,16496
2015-03-27 15:15:45 +0000,1112
2015-03-30 15:13:26 +0100,24884
2015-03-30 15:23:00 +0100,11828
2015-03-30 15:38:25 +0100,21428
2015-03-30 15:56:12 +0100,30512
2015-03-30 16:03:46 +0100,5212
2015-03-31 15:13:31 +0100,1632
2015-03-31 15:24:32 +0100,16056
2015-03-31 15:54:19 +0100,23944
2015-03-31 16:16:55 +0100,13196
2015-03-31 16:38:27 +0100,27036
2015-03-31 16:50:25 +0100,7056
2015-03-31 17:09:39 +0100,11008
2015-04-01 14:05:10 +0100,16516
2015-04-01 14:16:01 +0100,16248
2015-04-01 14:19:40 +0100,16
2015-04-01 16:12:43 +0100,50648
2015-04-01 16:27:47 +0100,412
2015-04-14 16:31:12 +0100,14600
2015-04-14 16:54:03 +0100,14532
2015-04-14 17:40:55 +0100,14916
2015-04-15 17:40:21 +0100,52
2015-04-16 15:14:42 +0100,15848
2015-04-16 15:28:16 +0100,7300
2015-04-16 15:29:15 +0100,4
2015-04-17 16:22:35 +0100,16896
2015-04-17 16:42:53 +0100,9972
2015-04-17 17:27:08 +0100,20
2015-04-22 14:58:22 +0100,26712
2015-04-22 15:05:01 +0100,3076
2015-04-22 15:09:02 +0100,4
2015-04-22 16:34:36 +0100,16872
2015-04-22 17:15:44 +0100,36508
2015-04-23 11:10:14 +0100,26628
2015-04-23 14:42:17 +0100,32860
2015-04-23 15:13:02 +0100,11556
2015-04-23 15:46:31 +0100,14288
2015-04-23 16:44:33 +0100,30716
2015-04-23 16:44:39 +0100,0
2015-04-23 16:57:06 +0100,6552
2015-04-23 17:03:18 +0100,6176
2015-04-23 17:03:30 +0100,4
2015-04-24 15:16:20 +0100,16228
2015-04-24 15:40:19 +0100,10740
2015-04-24 16:01:37 +0100,31968
2015-04-24 16:13:48 +0100,16508
2015-04-24 16:28:21 +0100,17696
2015-04-25 09:43:39 +0100,15268
2015-04-27 16:35:39 +0100,49040
2015-04-29 17:25:27 +0100,71080
2015-04-30 10:07:04 +0100,12572
2015-04-30 10:27:00 +0100,16880
2015-04-30 11:31:53 +0100,49572
2015-04-30 11:32:40 +0100,0
2015-04-30 15:37:54 +0100,17104
2015-04-30 16:22:07 +0100,25528
2015-04-30 17:26:03 +0100,72
2015-05-01 11:47:10 +0100,14336
2015-05-01 11:56:20 +0100,12552
2015-05-01 12:02:35 +0100,7288
2015-05-01 12:50:59 +0100,24880
2015-05-01 14:05:12 +0100,25072
2015-05-01 14:05:23 +0100,20
2015-05-02 21:54:11 +0100,16240
2015-05-02 22:04:04 +0100,15464
2015-05-02 22:26:30 +0100,28548
2015-05-02 22:40:10 +0100,14292
2015-05-02 22:51:10 +0100,17104
2015-05-02 22:57:44 +0100,4936
2015-05-02 23:13:51 +0100,23780
2015-05-02 23:34:55 +0100,16968
2015-05-02 23:51:05 +0100,11384
2015-05-02 23:53:15 +0100,2156
2015-05-08 13:53:59 +0100,14640
2015-05-08 13:54:25 +0100,0
2015-05-13 17:20:22 +0100,22700
2015-05-18 16:07:52 +0100,27172
2015-05-18 16:32:27 +0100,16488
2015-05-18 17:35:04 +0100,16
2015-05-19 14:44:34 +0100,28700
2015-05-19 14:46:30 +0100,20
2015-05-19 14:55:04 +0100,36
2015-05-19 15:13:35 +0100,3356
2015-05-19 16:08:42 +0100,13448
2015-05-19 16:11:58 +0100,3192
2015-05-19 16:14:49 +0100,200
2015-05-20 16:54:51 +0100,35172
2015-05-22 14:43:01 +0100,24816
2015-05-22 15:18:15 +0100,33432
2015-05-22 15:27:17 +0100,48
2015-05-22 16:13:54 +0100,10132
2015-05-22 17:04:42 +0100,9932
2015-05-22 17:22:45 +0100,276
2015-06-01 15:46:23 +0100,6436
2015-06-01 16:20:15 +0100,26216
2015-06-01 16:20:19 +0100,0
2015-06-02 14:19:10 +0100,16476
2015-06-02 15:19:38 +0100,23328
2015-06-02 15:29:29 +0100,5504
2015-06-02 15:39:29 +0100,16724
2015-06-02 16:03:40 +0100,22452
2015-06-02 17:35:40 +0100,33832
2015-06-03 10:47:06 +0100,44984
2015-06-03 10:57:25 +0100,11912
2015-06-03 11:05:18 +0100,15788
2015-06-03 11:13:41 +0100,13508
2015-06-03 14:15:28 +0100,11828
2015-06-03 14:22:53 +0100,12264
2015-06-03 14:39:59 +0100,30296
2015-06-03 15:32:53 +0100,6052
2015-06-03 15:39:36 +0100,8
2015-06-03 16:27:12 +0100,5808
2015-06-03 16:35:10 +0100,9764
2015-06-03 16:43:21 +0100,3192
2015-06-03 16:44:48 +0100,0
2015-06-08 13:48:55 +0100,8
2015-06-08 14:30:05 +0100,36016
2015-06-08 14:42:53 +0100,16240
2015-06-08 14:52:40 +0100,8976
2015-06-08 15:13:50 +0100,7488
2015-06-08 15:50:18 +0100,25528
2015-06-08 15:59:48 +0100,15636
2015-06-08 16:20:37 +0100,5748
2015-06-08 16:40:45 +0100,15308
2015-06-08 16:50:01 +0100,16520
2015-06-08 17:01:12 +0100,12432
2015-06-08 17:19:50 +0100,29404
2015-06-08 17:19:57 +0100,0
2015-06-11 17:31:23 +0100,0
2015-06-12 10:55:19 +0100,12636
2015-06-12 11:45:07 +0100,7448
2015-06-12 11:51:21 +0100,5284
2015-06-12 13:44:51 +0100,27216
2015-06-12 13:50:08 +0100,9140
2015-06-12 13:59:27 +0100,16836
2015-06-12 14:05:12 +0100,5508
2015-06-12 14:08:57 +0100,5032
2015-06-12 14:21:08 +0100,10708
2015-06-12 15:15:10 +0100,50492
2015-06-12 15:15:23 +0100,80
2015-06-12 16:18:03 +0100,13780
2015-06-12 16:18:06 +0100,0
2015-06-18 11:45:07 +0100,15428
2015-06-18 12:07:48 +0100,15812
2015-06-18 12:23:46 +0100,21072
2015-06-18 14:46:33 +0100,23248
2015-06-18 14:47:51 +0100,1580
2015-06-18 14:59:48 +0100,12636
2015-06-18 15:20:35 +0100,36984
2015-06-18 15:44:58 +0100,35036
2015-06-18 15:47:31 +0100,56
2015-06-29 15:55:44 +0100,51288
2015-06-29 16:08:36 +0100,16840
2015-06-29 16:23:53 +0100,6640
2015-06-29 16:37:14 +0100,21092
2015-06-29 16:50:46 +0100,24696
2015-06-29 17:04:47 +0100,25428
2015-06-29 17:10:16 +0100,11092
2015-07-03 10:52:34 +0100,15320
2015-07-03 10:58:37 +0100,13328
2015-07-03 11:13:35 +0100,508
2015-07-03 14:58:00 +0100,24252
2015-07-03 15:10:56 +0100,15780
2015-07-03 15:26:17 +0100,16100
2015-07-03 15:35:51 +0100,11116
2015-07-03 16:00:48 +0100,32304
2015-07-03 16:34:40 +0100,26964
2015-07-06 15:39:36 +0100,27184
2015-07-06 15:39:48 +0100,164
2015-07-27 14:29:53 +0100,7184
2015-07-27 14:31:26 +0100,0
2015-09-12 09:11:53 +0100,96
2015-09-12 09:29:34 +0100,4
2015-09-12 09:30:19 +0100,32
2015-09-12 09:30:47 +0100,20
2015-09-12 09:31:26 +0100,20
2015-09-12 09:44:08 +0100,0
2015-09-12 09:44:24 +0100,96
2015-09-12 10:06:33 +0100,232
2015-09-12 10:11:57 +0100,232
2015-09-12 10:18:42 +0100,100
2015-09-12 10:22:46 +0100,0
2015-09-12 10:22:54 +0100,8
2015-09-12 10:23:05 +0100,24
2015-09-12 10:23:52 +0100,8
2015-09-12 10:27:55 +0100,32
2015-09-12 10:48:27 +0100,72
2015-09-12 10:49:14 +0100,12
2015-09-12 10:49:48 +0100,108
2015-09-12 10:51:06 +0100,136
2015-09-12 10:51:47 +0100,4
2015-09-12 10:55:29 +0100,84
2015-09-12 10:56:34 +0100,80
2015-09-12 10:59:21 +0100,136
2015-09-12 11:00:28 +0100,48
2015-09-12 11:02:33 +0100,108
2015-09-12 11:05:01 +0100,444
2015-09-12 11:15:32 +0100,36
2015-09-12 11:19:21 +0100,52
2015-09-12 11:21:41 +0100,1868
2015-09-12 11:25:59 +0100,164
2015-09-12 11:28:17 +0100,36
2015-09-12 11:30:36 +0100,72
2015-09-12 11:50:04 +0100,16
2015-09-12 11:51:00 +0100,16
2015-09-12 11:51:26 +0100,8
2015-09-12 11:54:19 +0100,20
2015-09-12 12:01:43 +0100,20
2015-09-12 12:02:14 +0100,176
2015-09-12 12:03:35 +0100,24
2015-09-12 12:04:59 +0100,80
2015-09-12 12:05:07 +0100,56
2015-09-12 12:20:10 +0100,172
2015-09-12 12:27:51 +0100,60
2015-09-12 12:32:59 +0100,60
2015-09-12 12:35:42 +0100,28
2017-08-31 09:38:51 +0100,26692
